C:\Users\Hejea\Desktop\App\Eclipse App\lab4\src\lib\LabyrinthMap.java
C:\Users\Hejea\Desktop\App\Eclipse App\lab4\src\lib\LabyrinthModel.java
C:\Users\Hejea\Desktop\App\Eclipse App\lab4\src\lib\LabyrunthDiscover.java
C:\Users\Hejea\Desktop\App\Eclipse App\lab4\src\lib\LabyrinthSolver.java
C:\Users\Hejea\Desktop\App\Eclipse App\lab4\src\lib\LabyrinthView.java
C:\Users\Hejea\Desktop\App\Eclipse App\lab4\src\lib\LabyrinthObserver.java
C:\Users\Hejea\Desktop\App\Eclipse App\lab4\src\lib\LabyrinthViewer.java
C:\Users\Hejea\Desktop\App\Eclipse App\lab4\src\lib\Test.java
